…
``` r
# Selecting the required variables

hotel_copy <- hotel %>% select(c(1,2,4:18,20,24,26:28,30))
```

Let’s see first 10 rows using tibble

``` r
tibble(hotel_copy)
```

    ## # A tibble: 119,390 × 23
    ##    hotel        is_canceled arrival_date_year arrival_date_mon… arrival_date_we…
    ##    <fct>              <int>             <int> <fct>                        <int>
    ##  1 Resort Hotel           0              2015 July                            27
    ##  2 Resort Hotel           0              2015 July                            27
    ##  3 Resort Hotel           0              2015 July                            27
    ##  4 Resort Hotel           0              2015 July                            27
    ##  5 Resort Hotel           0              2015 July                            27
    ##  6 Resort Hotel           0              2015 July                            27
    ##  7 Resort Hotel           0              2015 July                            27
    ##  8 Resort Hotel           0              2015 July                            27
    ##  9 Resort Hotel           1              2015 July                            27
    ## 10 Resort Hotel           1              2015 July                            27
    ## # … with 119,380 more rows, and 18 more variables:
    ## #   arrival_date_day_of_month <int>, stays_in_weekend_nights <int>,
    ## #   stays_in_week_nights <int>, adults <int>, children <int>, babies <int>,
    ## #   meal <fct>, country <fct>, market_segment <fct>,
    ## #   distribution_channel <fct>, is_repeated_guest <int>,
    ## #   previous_cancellations <int>, reserved_room_type <fct>, agent <fct>,
    ## #   days_in_waiting_list <int>, customer_type <fct>, adr <dbl>, …
…
Which booking agency has highest number of bookings in both the hotels ?

``` r
# City Hotel

hotel_copy %>% 
  filter(is_canceled==0, hotel=="City Hotel") %>%
  select(hotel,agent) %>% 
  drop_na(agent) %>% 
  group_by(agent) %>% 
  summarise(total = n()) %>% 
  arrange(desc(total))
```

    ## # A tibble: 202 × 2
    ##    agent total
    ##    <fct> <int>
    ##  1 9     18693
    ##  2 7      3065
    ##  3 14     2988
    ##  4 1      1907
    ##  5 6      1717
    ##  6 28     1556
    ##  7 8       848
    ##  8 3       541
    ##  9 37      513
    ## 10 83      507
    ## # … with 192 more rows
…
Highest number of bookings across two years in the City Hotel was
facilitated by Travel Agency with ID 9

``` r
# Resort Hotel
hotel_copy %>% 
  filter(is_canceled==0, hotel=="Resort Hotel") %>% 
  select(hotel,agent) %>% 
  drop_na(agent) %>% 
  group_by(agent) %>% 
  summarise(total=n()) %>% 
  arrange(desc(total))
```

    ## # A tibble: 176 × 2
    ##    agent total
    ##    <fct> <int>
    ##  1 240    8422
    ##  2 250    2356
    ##  3 241    1485
    ##  4 40      920
    ##  5 314     764
    ##  6 6       548
    ##  7 242     519
    ##  8 243     486
    ##  9 298     330
    ## 10 171     314
    ## # … with 166 more rows
…
